excès de pouvoir,Recodage
,
plein contentieux,plein contentieux
,
Void,Void
,
plein contentieux fiscal,plein contentieux fiscal
,
recours pour excès de pouvoir,excès de pouvoir
,
autres,Void
,
contentieux fiscal,plein contentieux fiscal
,
fiscal,plein contentieux fiscal
,
recours en cassation,cassation
,
contentieux des pensions,plein contentieux
,
exécution décision justice adm,exécution
,
rectif. erreur matérielle,rectification erreur matérielle
,
sursis à exécution,sursis à exécution
,
conflit sur renvoi juridictionnel,conflit
,
plein contentieux recours incident,plein contentieux
,
référé,référé
,
exces de pouvoir,excès de pouvoir
,
astreinte,astreinte
,
suspension sursis,suspension
,
rectif. d'erreur matérielle,rectification erreur matérielle
,
appréciation de la légalité,excès de pouvoir
,
action en astreinte,astreinte
,
recours pour excès de pouvoir plein contentieux,excès de pouvoir
,
contentieux  répressif,répression
,
conflit positif,conflit
,
contrôle de légalité,contrôle de légalité
,
appréciation de légalité,excès de pouvoir
,
recours en révision,révision
,
recours en rectification d'erreur matérielle,rectification erreur matérielle
,
contentieux de la répression,répression
,
recours pour excès de pouvoir sursis à exécution,excès de pouvoir
,
recours en interprétation,interprétation
,
edja,
,
plein contentieux fiscal recours incident,plein contentieux fiscal
,
récusation,récusation
,
refere,référé
,
tierce opposition,tierce opposition
,
plein contentieux recours pour excès de pouvoir,excès de pouvoir
,
interprétation,interprétation
,
action en désaveu,action en désaveu
,
opposition,tierce opposition
,
contentieux répressif,répression
,
conflit négatif,conflit
,
recours pour excès de pouvoir recours incident,excès de pouvoir
,
recours en appréciation de légalité,excès de pouvoir
,
rectification d'erreur matérielle,rectification erreur matérielle
,
suspicion légitime,récusation
,
conflit negatif,conflit
,
plein contentieux sursis à exécution,plein contentieux
,
controle de legalite,contrôle de légalité
,
constat d'urgence,constat d’urgence
,
plein contentieux fiscal sursis à exécution,plein contentieux fiscal
,
exécution,exécution
,
sursis à exécution recours pour excès de pouvoir,excès de pouvoir
,
recours dans l'intérêt de la loi,intérêt de la loi
,
recours ds l'intérêt de la loi,intérêt de la loi
,
recours pour excès de pouvoir tierce opposition,excès de pouvoir
,
recours en rectification pour erreur matérielle,rectification erreur matérielle
,
tierce-opposition,tierce opposition
,
recours en cassation sursis à exécution,cassation
